module gitlab.com/bosi/golang-queue

go 1.17

require (
	github.com/stretchr/testify v1.8.2
	syreclabs.com/go/faker v1.2.3
)

require (
	github.com/davecgh/go-spew v1.1.1 // indirect
	github.com/pmezard/go-difflib v1.0.0 // indirect
	gopkg.in/yaml.v3 v3.0.1 // indirect
)
